…
#>   SITE_ID = col_character(),
#>   YEAR = col_double(),
#>   VISIT_NO = col_double(),
#>   DATE_PROFILE = col_character(),
#>   SAMPLED_PROFILE = col_character(),
#>   DEPTH = col_double(),
#>   METALIMNION = col_character(),
#>   TEMP_FIELD = col_double(),
#>   DO_FIELD = col_double(),
#>   PH_FIELD = col_double(),
#>   COND_FIELD = col_double(),
#>   FLAG_PROFILE = col_character(),
#>   COMMENT_PROFILE = col_character()
#> )
#> # A tibble: 12,670 x 13
#>    SITE_ID  YEAR VISIT_NO DATE_PROFILE SAMPLED_PROFILE DEPTH METALIMNION
#>    <chr>   <dbl>    <dbl> <chr>        <chr>           <dbl> <chr>      
#>  1 NLA066…  2007        1 7/31/2007    YES                 0 <NA>       
#>  2 NLA066…  2007        1 7/31/2007    YES                 1 <NA>       
#>  3 NLA066…  2007        1 7/31/2007    YES                 2 <NA>       
#>  4 NLA066…  2007        1 7/31/2007    YES                 3 <NA>       
#>  5 NLA066…  2007        1 7/31/2007    YES                 4 <NA>       
#>  6 NLA066…  2007        1 7/31/2007    YES                 5 <NA>       
#>  7 NLA066…  2007        1 7/31/2007    YES                 6 <NA>       
#>  8 NLA066…  2007        1 7/31/2007    YES                 7 <NA>       
#>  9 NLA066…  2007        1 7/31/2007    YES                 8 <NA>       
#> 10 NLA066…  2007        1 6/14/2007    YES                 0 <NA>       
#> # … with 12,660 more rows, and 6 more variables: TEMP_FIELD <dbl>,
#> #   DO_FIELD <dbl>, PH_FIELD <dbl>, COND_FIELD <dbl>, FLAG_PROFILE <chr>,
#> #   COMMENT_PROFILE <chr>
```
…
